1,	BLR	, Boiler
2,	BLW	, Blower
3,	CHI	, Chiller
4,	CMPR, Compressor
5,	DG 	, Diesel Generator
6,	FAN , Fan
7,	GEN	, Generator
8,	HPU	, Hydraulic Power Unit
9,	MPE	, Main propulsion engine
10,	MTR	, Electric motor
11,	PMP	, Pump
12,	PRF	, Purifier
13,	STB	, Stabilizer
14,	STR	, Steering gear
15,	TC	, Turbo charger
16,	THR	, Thruster